module gitlab.com/mmuflih/autodeploy

go 1.15

require (
	github.com/asaskevich/govalidator v0.0.0-20200907205600-7a23bdc65eef
	github.com/dgrijalva/jwt-go v3.2.0+incompatible
	github.com/fsnotify/fsnotify v1.4.9 // indirect
	github.com/gorilla/handlers v1.5.1
	github.com/gorilla/mux v1.8.0
	github.com/jinzhu/gorm v1.9.16
	github.com/magiconair/properties v1.8.5 // indirect
	github.com/mitchellh/mapstructure v1.4.1 // indirect
	github.com/mmuflih/datelib v0.0.0-20201122065647-104478b931b2
	github.com/mmuflih/envgo v0.0.0-20210223015203-5d112a34459c
	github.com/mmuflih/golib v1.1.3
	github.com/mmuflih/gorm-paginator v1.3.3-0.20210326003343-9e5e4c1d3bf8
	github.com/pelletier/go-toml v1.8.1 // indirect
	github.com/satori/go.uuid v1.2.0
	github.com/spf13/afero v1.6.0 // indirect
	github.com/spf13/cast v1.3.1 // indirect
	github.com/spf13/jwalterweatherman v1.1.0 // indirect
	github.com/spf13/pflag v1.0.5 // indirect
	github.com/spf13/viper v1.7.1 // indirect
	go.uber.org/dig v1.10.0
	golang.org/x/crypto v0.0.0-20201016220609-9e8e0b390897
	golang.org/x/sys v0.0.0-20210331175145-43e1dd70ce54 // indirect
	golang.org/x/text v0.3.6 // indirect
	gopkg.in/ini.v1 v1.62.0 // indirect
	gopkg.in/mgo.v2 v2.0.0-20190816093944-a6b53ec6cb22
	gopkg.in/yaml.v2 v2.4.0 // indirect
	gorm.io/driver/mysql v1.0.3
	gorm.io/gorm v1.21.6
)
